<svg width="98" height="94" viewBox="0 0 98 94" fill="none" xmlns="http://www.w3.org/2000/svg">
<g clip-path="url(#clip0)">
<path d="M40.8796 15.98L2.37964 82.67C-0.12036 86.99 2.99964 92.4 7.99964 92.4H84.9996C89.9896 92.4 93.1196 86.99 90.6196 82.67L52.1196 15.98C49.6196 11.65 43.3796 11.65 40.8796 15.98Z" stroke="#001D85" stroke-width="3" stroke-miterlimit="10" stroke-linecap="round" stroke-linejoin="round"/>
<path d="M46.5007 81.27C49.1406 81.27 51.2807 79.1299 51.2807 76.49C51.2807 73.8501 49.1406 71.71 46.5007 71.71C43.8608 71.71 41.7207 73.8501 41.7207 76.49C41.7207 79.1299 43.8608 81.27 46.5007 81.27Z" stroke="#001D85" stroke-width="3" stroke-miterlimit="10" stroke-linecap="round" stroke-linejoin="round"/>
<path d="M49.5904 66.1H43.4104L39.1504 38.62H53.8504L49.5904 66.1Z" stroke="#001D85" stroke-width="3" stroke-miterlimit="10" stroke-linecap="round" stroke-linejoin="round"/>
<path d="M94.5104 13.32H92.3304C92.0604 12.25 91.6304 11.24 91.0804 10.31L92.6303 8.76C93.1303 8.26 93.1303 7.45 92.6303 6.95L90.3403 4.66C89.8403 4.16 89.0303 4.16 88.5303 4.66L86.9804 6.21C86.0504 5.66 85.0404 5.24 83.9704 4.96V2.78C83.9704 2.07 83.4004 1.5 82.6904 1.5H79.4604C78.7504 1.5 78.1804 2.07 78.1804 2.78V4.96C77.1104 5.23 76.1003 5.66 75.1703 6.21L73.6204 4.66C73.1204 4.16 72.3103 4.16 71.8103 4.66L69.5203 6.95C69.0203 7.45 69.0203 8.26 69.5203 8.76L71.0704 10.31C70.5204 11.24 70.1004 12.25 69.8204 13.32H67.6404C66.9304 13.32 66.3604 13.89 66.3604 14.6V17.83C66.3604 18.54 66.9304 19.11 67.6404 19.11H69.8204C70.0904 20.18 70.5204 21.19 71.0704 22.12L69.5203 23.67C69.0203 24.17 69.0203 24.98 69.5203 25.48L71.8103 27.77C72.3103 28.27 73.1204 28.27 73.6204 27.77L75.1703 26.22C76.1003 26.77 77.1104 27.19 78.1804 27.47V29.65C78.1804 30.36 78.7504 30.93 79.4604 30.93H82.6904C83.4004 30.93 83.9704 30.36 83.9704 29.65V27.47C85.0404 27.2 86.0504 26.77 86.9804 26.22L88.5303 27.77C89.0303 28.27 89.8403 28.27 90.3403 27.77L92.6303 25.48C93.1303 24.98 93.1303 24.17 92.6303 23.67L91.0804 22.12C91.6304 21.19 92.0504 20.18 92.3304 19.11H94.5104C95.2204 19.11 95.7904 18.54 95.7904 17.83V14.6C95.7904 13.89 95.2204 13.32 94.5104 13.32ZM81.0804 22.96C77.3504 22.96 74.3304 19.94 74.3304 16.21C74.3304 12.48 77.3504 9.46 81.0804 9.46C84.8104 9.46 87.8304 12.48 87.8304 16.21C87.8304 19.94 84.8004 22.96 81.0804 22.96Z" stroke="#001D85" stroke-width="3" stroke-miterlimit="10" stroke-linecap="round" stroke-linejoin="round"/>
</g>
<defs>
<clipPath id="clip0">
<rect width="97.29" height="93.9" fill="white"/>
</clipPath>
</defs>
</svg>
