<svg width="80" height="100" viewBox="0 0 80 100" fill="none" xmlns="http://www.w3.org/2000/svg">
<path d="M78.4309 18.4632V98.421H12.146C6.30845 98.421 1.56934 93.6316 1.56934 87.7158V10.9684" stroke="#001D85" stroke-width="3" stroke-miterlimit="10" stroke-linecap="round" stroke-linejoin="round"/>
<path d="M78.4309 18.4632H9.58294C5.15767 18.4632 1.56934 14.6842 1.56934 10.0211C1.56934 5.3579 5.15767 1.57895 9.58294 1.57895H60.3741" stroke="#001D85" stroke-width="3" stroke-miterlimit="10" stroke-linecap="round" stroke-linejoin="round"/>
<path d="M25.6866 42.6009L42.9521 59.9732L52.6206 50.245L35.355 32.8727L25.6866 42.6009Z" stroke="#001D85" stroke-width="3" stroke-miterlimit="10" stroke-linecap="round" stroke-linejoin="round"/>
<path d="M34.3248 51.2842L13.8828 71.8526" stroke="#001D85" stroke-width="3" stroke-miterlimit="10" stroke-linecap="round" stroke-linejoin="round"/>
<path d="M57.2675 51.8526L44.5566 64.6421" stroke="#001D85" stroke-width="3" stroke-miterlimit="10" stroke-linecap="round" stroke-linejoin="round"/>
<path d="M33.7492 28.2L21.0488 40.979" stroke="#001D85" stroke-width="3" stroke-miterlimit="10" stroke-linecap="round" stroke-linejoin="round"/>
<path d="M40.7184 84.7841L69.3623 84.7841L69.3623 80.6999L40.7184 80.6999L40.7184 84.7841Z" stroke="#001D85" stroke-width="3" stroke-miterlimit="10" stroke-linecap="round" stroke-linejoin="round"/>
<path d="M63.942 76.3579H46.1572" stroke="#001D85" stroke-width="3" stroke-miterlimit="10" stroke-linecap="round" stroke-linejoin="round"/>
<path d="M10.5977 10.0211H69.4024" stroke="#001D85" stroke-width="3" stroke-miterlimit="10" stroke-linecap="round" stroke-linejoin="round"/>
</svg>
