<svg width="95" height="100" viewBox="0 0 95 100" fill="none" xmlns="http://www.w3.org/2000/svg">
<path d="M58.5889 78.7368L68.211 59.8842C69.3798 57.6 72.615 57.6 73.7839 59.8842L93.4351 98.4211H68.2423" stroke="#001D85" stroke-width="3" stroke-miterlimit="10" stroke-linecap="round" stroke-linejoin="round"/>
<path d="M1.56543 98.4211L29.2942 41.8842C31.5902 37.2 38.2171 37.2 40.5235 41.8842L68.2418 98.4211H1.56543Z" stroke="#001D85" stroke-width="3" stroke-miterlimit="10" stroke-linecap="round" stroke-linejoin="round"/>
<path d="M34.9092 38.3684V1.57895" stroke="#001D85" stroke-width="3" stroke-miterlimit="10" stroke-linecap="round" stroke-linejoin="round"/>
<path d="M55.4162 20.6842H34.9092V7.23157H55.4162L49.8433 13.9579L55.4162 20.6842Z" stroke="#001D85" stroke-width="3" stroke-miterlimit="10" stroke-linecap="round" stroke-linejoin="round"/>
</svg>
