<svg width="24" height="24" viewBox="0 0 24 24" fill="none" xmlns="http://www.w3.org/2000/svg">
<g clip-path="url(#clip0)">
<path d="M7.53121 19.5927H4.3484V9.31672H7.53121V19.5927ZM7.84879 6.04279C7.84879 5.01388 7.01401 4.17875 5.98563 4.17875C4.95335 4.17875 4.1207 5.01388 4.1207 6.04279C4.1207 7.07205 4.95335 7.90719 5.98563 7.90719C7.01401 7.90719 7.84879 7.07205 7.84879 6.04279ZM19.4437 13.9393C19.4437 11.1808 18.8609 9.13484 15.6385 9.13484C14.0901 9.13484 13.0507 9.90923 12.6264 10.7145H12.6234V9.31672H9.53148V19.5927H12.6234V14.4906C12.6234 13.1544 12.9635 11.86 14.6197 11.86C16.2534 11.86 16.3063 13.3879 16.3063 14.5755V19.5927H19.4437V13.9393ZM23.5359 20.9113V3.0875C23.5359 1.58312 22.3121 0.359375 20.8077 0.359375H2.98398C1.47961 0.359375 0.255859 1.58312 0.255859 3.0875V20.9113C0.255859 22.4156 1.47961 23.6394 2.98398 23.6394H20.8077C22.3121 23.6394 23.5359 22.4156 23.5359 20.9113ZM20.8077 2.17813C21.3091 2.17813 21.7171 2.5861 21.7171 3.0875V20.9113C21.7171 21.4127 21.3091 21.8206 20.8077 21.8206H2.98398C2.48258 21.8206 2.07461 21.4127 2.07461 20.9113V3.0875C2.07461 2.5861 2.48258 2.17813 2.98398 2.17813H20.8077Z" fill="#4FC5E9"/>
</g>
<defs>
<clipPath id="clip0">
<rect width="23.28" height="23.28" fill="white" transform="translate(0.255859 0.359375)"/>
</clipPath>
</defs>
</svg>
