[
  {
    "name": "404",
    "path": "/404",
    "component": "D:\\\\wamp64\\\\www\\\\asbancnuxt\\\\pages\\\\404.vue",
    "chunkName": "pages/404",
    "url": "/404",
    "_name": "_60fdd415"
  },
  {
    "name": "contacto",
    "path": "/contacto",
    "component": "D:\\\\wamp64\\\\www\\\\asbancnuxt\\\\pages\\\\contacto.vue",
    "chunkName": "pages/contacto",
    "url": "/contacto",
    "_name": "_6fbe8242"
  },
  {
    "name": "educacion-financiera",
    "path": "/educacion-financiera",
    "component": "D:\\\\wamp64\\\\www\\\\asbancnuxt\\\\pages\\\\educacion-financiera.vue",
    "chunkName": "pages/educacion-financiera",
    "url": "/educacion-financiera",
    "_name": "_f9e724c6"
  },
  {
    "name": "estadisticas-del-sector",
    "path": "/estadisticas-del-sector",
    "component": "D:\\\\wamp64\\\\www\\\\asbancnuxt\\\\pages\\\\estadisticas-del-sector.vue",
    "chunkName": "pages/estadisticas-del-sector",
    "url": "/estadisticas-del-sector",
    "_name": "_7c781985"
  },
  {
    "name": "eventos",
    "path": "/eventos",
    "component": "D:\\\\wamp64\\\\www\\\\asbancnuxt\\\\pages\\\\eventos.vue",
    "chunkName": "pages/eventos",
    "url": "/eventos",
    "_name": "_792dcf5b"
  },
  {
    "name": "glosario",
    "path": "/glosario",
    "component": "D:\\\\wamp64\\\\www\\\\asbancnuxt\\\\pages\\\\glosario.vue",
    "chunkName": "pages/glosario",
    "url": "/glosario",
    "_name": "_36942b93"
  },
  {
    "name": "libro-de-reclamaciones",
    "path": "/libro-de-reclamaciones",
    "component": "D:\\\\wamp64\\\\www\\\\asbancnuxt\\\\pages\\\\libro-de-reclamaciones.vue",
    "chunkName": "pages/libro-de-reclamaciones",
    "url": "/libro-de-reclamaciones",
    "_name": "_a74f49c4"
  },
  {
    "name": "nuestra-asociacion",
    "path": "/nuestra-asociacion",
    "component": "D:\\\\wamp64\\\\www\\\\asbancnuxt\\\\pages\\\\nuestra-asociacion.vue",
    "chunkName": "pages/nuestra-asociacion",
    "url": "/nuestra-asociacion",
    "_name": "_472887f5"
  },
  {
    "name": "politicas-de-privacidad",
    "path": "/politicas-de-privacidad",
    "component": "D:\\\\wamp64\\\\www\\\\asbancnuxt\\\\pages\\\\politicas-de-privacidad.vue",
    "chunkName": "pages/politicas-de-privacidad",
    "url": "/politicas-de-privacidad",
    "_name": "_443bb42f"
  },
  {
    "name": "preguntas-frecuentes",
    "path": "/preguntas-frecuentes",
    "component": "D:\\\\wamp64\\\\www\\\\asbancnuxt\\\\pages\\\\preguntas-frecuentes.vue",
    "chunkName": "pages/preguntas-frecuentes",
    "url": "/preguntas-frecuentes",
    "_name": "_8dec8036"
  },
  {
    "name": "prensa",
    "path": "/prensa",
    "component": "D:\\\\wamp64\\\\www\\\\asbancnuxt\\\\pages\\\\prensa.vue",
    "chunkName": "pages/prensa",
    "url": "/prensa",
    "_name": "_db01ad28"
  },
  {
    "name": "servicios",
    "path": "/servicios",
    "component": "D:\\\\wamp64\\\\www\\\\asbancnuxt\\\\pages\\\\servicios.vue",
    "chunkName": "pages/servicios",
    "url": "/servicios",
    "_name": "_813c1a0c"
  },
  {
    "name": "simuladores",
    "path": "/simuladores",
    "component": "D:\\\\wamp64\\\\www\\\\asbancnuxt\\\\pages\\\\simuladores.vue",
    "chunkName": "pages/simuladores",
    "url": "/simuladores",
    "_name": "_5f56987f"
  },
  {
    "name": "terminos-y-condiciones",
    "path": "/terminos-y-condiciones",
    "component": "D:\\\\wamp64\\\\www\\\\asbancnuxt\\\\pages\\\\terminos-y-condiciones.vue",
    "chunkName": "pages/terminos-y-condiciones",
    "url": "/terminos-y-condiciones",
    "_name": "_376034c1"
  },
  {
    "name": "usuarios",
    "path": "/usuarios",
    "component": "D:\\\\wamp64\\\\www\\\\asbancnuxt\\\\pages\\\\usuarios.vue",
    "chunkName": "pages/usuarios",
    "url": "/usuarios",
    "_name": "_15c649f8"
  },
  {
    "name": "educacion_financiera-slug",
    "path": "/educacion_financiera/:slug?",
    "component": "D:\\\\wamp64\\\\www\\\\asbancnuxt\\\\pages\\\\educacion_financiera\\\\_slug.vue",
    "chunkName": "pages/educacion_financiera/_slug",
    "_name": "_13619e0b"
  },
  {
    "name": "estadistica-del-sector-slug",
    "path": "/estadistica-del-sector/:slug?",
    "component": "D:\\\\wamp64\\\\www\\\\asbancnuxt\\\\pages\\\\estadistica-del-sector\\\\_slug.vue",
    "chunkName": "pages/estadistica-del-sector/_slug",
    "_name": "_1031dc50"
  },
  {
    "name": "evento-slug",
    "path": "/evento/:slug?",
    "component": "D:\\\\wamp64\\\\www\\\\asbancnuxt\\\\pages\\\\evento\\\\_slug.vue",
    "chunkName": "pages/evento/_slug",
    "_name": "_84bf511c"
  },
  {
    "name": "noticia-slug",
    "path": "/noticia/:slug?",
    "component": "D:\\\\wamp64\\\\www\\\\asbancnuxt\\\\pages\\\\noticia\\\\_slug.vue",
    "chunkName": "pages/noticia/_slug",
    "_name": "_54969a18"
  },
  {
    "name": "servicio-slug",
    "path": "/servicio/:slug?",
    "component": "D:\\\\wamp64\\\\www\\\\asbancnuxt\\\\pages\\\\servicio\\\\_slug.vue",
    "chunkName": "pages/servicio/_slug",
    "_name": "_3c25f05e"
  },
  {
    "name": "usuario-slug",
    "path": "/usuario/:slug?",
    "component": "D:\\\\wamp64\\\\www\\\\asbancnuxt\\\\pages\\\\usuario\\\\_slug.vue",
    "chunkName": "pages/usuario/_slug",
    "_name": "_9cb0af62"
  },
  {
    "name": "webinar-slug",
    "path": "/webinar/:slug?",
    "component": "D:\\\\wamp64\\\\www\\\\asbancnuxt\\\\pages\\\\webinar\\\\_slug.vue",
    "chunkName": "pages/webinar/_slug",
    "_name": "_03e28eda"
  },
  {
    "name": "index",
    "path": "/",
    "component": "D:\\\\wamp64\\\\www\\\\asbancnuxt\\\\pages\\\\index.vue",
    "chunkName": "pages/index",
    "url": "/",
    "_name": "_3c8ed96f"
  },
  {
    "name": "custom",
    "path": "*",
    "component": "D:\\\\wamp64\\\\www\\\\asbancnuxt\\\\pages\\\\404.vue",
    "_name": "_60fdd415"
  }
]
